{
  "A minimal OS with automatic updates. Scalable and secure.": "A minimal OS with automatic updates. Scalable and secure.",
  "Attend a meeting": "Attend a meeting",
  "Built By You": "Built By You",
  "Chat with the team": "Chat with the team",
  "Container-based": "Container-based",
  "CoreOS is currently available on multiple platforms, with more coming soon.": "CoreOS is currently available on multiple platforms, with more coming soon.",
  "Documentation": "Documentation",
  "Download Now": "Download Now",
  "Everything is supported by a totally free and open-source Fedora ecosystem.": "Everything is supported by a totally free and open-source Fedora ecosystem.",
  "Fedora CoreOS Image": "Fedora CoreOS Image",
  "Flexible": "Flexible",
  "Join the mailing list": "Join the mailing list",
  "Minimal": "Minimal",
  "Open to all current and potential contributors $cadence at **$time** UTC in **$location** (see [fedocal\u2192coreos](https://calendar.fedoraproject.org/list/CoreOS/) for updates).": "Open to all current and potential contributors {'$'}cadence at **{'$'}time** UTC in **{'$'}location** (see [fedocal\u2192coreos](https://calendar.fedoraproject.org/list/CoreOS/) for updates).",
  "Open to everyone": "Open to everyone",
  "Open-source Ecosystem": "Open-source Ecosystem",
  "Our goal is to provide the best container host to run workloads securely and at scale.": "Our goal is to provide the best container host to run workloads securely and at scale.",
  "Platforms Tested against CoreOS": "Platforms Tested against CoreOS",
  "Release Notes": "Release Notes",
  "Report & discuss issues": "Report & discuss issues",
  "Secure": "Secure",
  "Sign up at [coreos-status@lists.fedoraproject.org](https://lists.fedoraproject.org/admin/lists/coreos-status.lists.fedoraproject.org/) to receive meeting agendas and minutes.": "Sign up at [coreos-status{'@'}lists.fedoraproject.org](https://lists.fedoraproject.org/admin/lists/coreos-status.lists.fedoraproject.org/) to receive meeting agendas and minutes.",
  "The Fedora CoreOS image is kept minimal by design.": "The Fedora CoreOS image is kept minimal by design.",
  "The Fedora Project envisions a world where everyone benefits from free and open source software built by inclusive, welcoming, and open-minded communities.\n\nFedora CoreOS is created by a team in the Fedora community called the CoreOS Working Group. It is comprised of official members who have decision making powers, as well as other contributors. Learn more on the CoreOS Working Group website.": "The Fedora Project envisions a world where everyone benefits from free and open source software built by inclusive, welcoming, and open-minded communities.\n\nFedora CoreOS is created by a team in the Fedora community called the CoreOS Working Group. It is comprised of official members who have decision making powers, as well as other contributors. Learn more on the CoreOS Working Group website.",
  "The container optimized OS": "The container optimized OS",
  "The optimal container host will be offered in order to run containerized applications.": "The optimal container host will be offered in order to run containerized applications.",
  "There are a wide variety of supported installation methods.": "There are a wide variety of supported installation methods.",
  "Try it now": "Try it now",
  "Visit \\#fedora-coreos on irc.libera.chat.": "Visit \\#fedora-coreos on irc.libera.chat.",
  "Why Fedora CoreOS?": "Why Fedora CoreOS?",
  "You can view, file, and discuss Fedora CoreOS issues on the [Fedora CoreOS issue tracker](https://github.com/coreos/fedora-coreos-tracker/issues).": "You can view, file, and discuss Fedora CoreOS issues on the [Fedora CoreOS issue tracker](https://github.com/coreos/fedora-coreos-tracker/issues)."
}